…
## Example 1: Get Real Income with selected base year.

This is a basic example for `real_income()` that returns a tibble with
income weighted over inflation for the selected base year.

``` r
real_income(base_year=1989) 
#> # A tibble: 88,166 × 5
#>           IDind  wave indwage annual_wage_CPI  base
#>           <dbl> <dbl>   <dbl>           <dbl> <dbl>
#>  1 211103001001  1989   1140.           1140.  1989
#>  2 211103001002  1989    940.            940.  1989
#>  3 211103002001  1989   1590.           1590.  1989
#>  4 211103002002  1989    229.            229.  1989
#>  5 211103003003  1989    784.            784.  1989
#>  6 211103003004  1989    784.            784.  1989
#>  7 211103004003  1989    940.            940.  1989
#>  8 211103004004  1989    784.            784.  1989
#>  9 211103005001  1989   1140.           1140.  1989
#> 10 211103005002  1989    784.            784.  1989
#> # … with 88,156 more rows
```

## Example 2: Get Number of Children a women has up to an inputted year.

``` r
num_of_children(year = 2006) 
#> # A tibble: 17,948 × 5
#>           IDind  wave child_died child_births num_children
#>           <dbl> <dbl>      <dbl>        <dbl>        <dbl>
#>  1 211101001002  1991          0            0            0
#>  2 211101001002  1993          0            0            0
#>  3 211101001002  2000          0            1            1
#>  4 211101002002  1991          0            0            0
#>  5 211101002002  1993          0            1            1
#>  6 211101003002  1991          0            0            0
#>  7 211101003002  1993          0            1            1
#>  8 211101003002  2000          0            1            1
#>  9 211101003101  2006          0            1            1
#> 10 211101004001  1991          0            0            0
#> # … with 17,938 more rows
```
…
